<?xml version="1.0" encoding="utf-8"?>
<!-- Generator: Adobe Illustrator 16.0.0, SVG Export Plug-In . SVG Version: 6.00 Build 0)  -->
<!DOCTYPE svg PUBLIC "-//W3C//DTD SVG 1.1//EN" "http://www.w3.org/Graphics/SVG/1.1/DTD/svg11.dtd">
<svg version="1.1" id="Capa_1" xmlns="http://www.w3.org/2000/svg" xmlns:xlink="http://www.w3.org/1999/xlink" x="0px" y="0px"
	 width="200px" height="96.703px" viewBox="0 0 200 96.703" enable-background="new 0 0 200 96.703" xml:space="preserve">
<polygon fill="#1c8cc7" stroke="#1c8cc7" stroke-miterlimit="10" points="195,92.5 6,92.5 100.5,4.013 "/>
</svg>
